cell_line_analysis.R
…
# Compute bioactivity scores for each well
xdist <- mclapply(unique(x$PlateID), function(p) {
  out <- filter(x, PlateID == p) %>% dplyr::select(-matches('^PC'))
  return(bioactivity(out))
}, mc.cores=n.core)

xdist <- rbindlist(xdist)

# Bioactivity by plate
bioactive.plate <- group_by(xdist, PlateID) %>% 
  summarize(PropBioactive=mean(pval == 0))

print(bioactive.plate)

## # A tibble: 37 x 2
##    PlateID    PropBioactive
##    <chr>              <dbl>
##  1 2021018020         0.511
##  2 2021018021         0.345
##  3 2021018022         0.309
##  4 2021018023         0.455
##  5 2021018024         0.318
##  6 2021018025         0.212
##  7 2021018026         0.430
##  8 2021018027         0.512
##  9 2021018029         0.423
## 10 2021018030         0.140
## #  with 27 more rows
…
write.csv(file='results/bioactivity_category.csv', bioactive.cell, quote=FALSE)

# Bioactivity by cell line/category
bioactive.cell.cat <- filter(xdist, Compound_Usage == 'reference_cpd') %>%
  group_by(Compound_Category, Cell_Line) %>% 
  summarize(PropBioactive=mean(pval == 0))

## `summarise()` has grouped output by 'Compound_Category'. You can override using the `.groups` argument.

print(bioactive.cell.cat)

## # A tibble: 30 x 3
## # Groups:   Compound_Category [10]
##    Compound_Category Cell_Line PropBioactive
##    <chr>             <chr>             <dbl>
##  1 Actin             786-0             0.6  
##  2 Actin             A549              0.6  
##  3 Actin             OVCAR4            0.6  
##  4 AuroraB           786-0             0.2  
##  5 AuroraB           A549              0.4  
##  6 AuroraB           OVCAR4            0.4  
##  7 DNA               786-0             0.56 
##  8 DNA               A549              0.427
##  9 DNA               OVCAR4            0.48 
## 10 ER                786-0             0.65 
## #  with 20 more rows
…
