marker_analysis.R
…
# Compute bioactivity scores for each well
xdist <- mclapply(unique(x$PlateID), function(p) {
  out <- filter(x, PlateID == p) %>% dplyr::select(-matches('^PC'))
  return(bioactivity(out))
}, mc.cores=n.core)

xdist <- rbindlist(xdist)

# Bioactivity by plate
bioactive.plate <- group_by(xdist, PlateID) %>% 
  summarize(PropBioactive=mean(pval == 0))

print(bioactive.plate)

## # A tibble: 21 x 2
##    PlateID    PropBioactive
##    <chr>              <dbl>
##  1 2021018020         0.514
##  2 2021018021         0.379
##  3 2021018022         0.3  
##  4 2021018023         0.460
##  5 2021018024         0.301
##  6 2021018025         0.216
##  7 2021018026         0.430
##  8 2021018027         0.507
##  9 2021018066         0.134
## 10 2021018068         0.194
## #  with 11 more rows
…
